{
"images" : [
{
"idiom" : "iphone",
"filename" : "sfondo23.png",
"scale" : "1x"
},
{
"idiom" : "iphone",
"scale" : "2x"
},
{
"idiom" : "iphone",
"scale" : "3x"
},
{
"idiom" : "ipad",
"filename" : "sfondo23-1.png",
"scale" : "1x"
},
{
"idiom" : "ipad",
"scale" : "2x"
}
],
"info" : {
"version" : 1,
"author" : "xcode"
}
}