{
  "images" : [
    {
      "idiom" : "iphone",
      "filename" : "iphone_SE.png",
      "scale" : "1x"
    },
    {
      "idiom" : "iphone",
      "filename" : "iphone_7.png",
      "scale" : "2x"
    },
    {
      "idiom" : "iphone",
      "filename" : "iphone_7_plus.png",
      "scale" : "3x"
    },
    {
      "idiom" : "ipad",
      "filename" : "ipad_pro_97.png",
      "scale" : "1x"
    },
    {
      "idiom" : "ipad",
      "filename" : "ipad_pro_129.png",
      "scale" : "2x"
    }
  ],
  "info" : {
    "version" : 1,
    "author" : "xcode"
  }
}